ADDR1               ADDR2                         KURIR
ACEH                ACEH                          PT POS
AGAM                AGAM                          PT POS                        
AIMAS SORONG        AIMAS SORONG                  PT POS                        
AIRMADIDI           AIRMADIDI                     PT POS                        
AJIBARANG           AJIBARANG                     PT POS                        
AMBARAWA            AMBARAWA                      PT POS                        
AMBON               AMBON                         PT POS                        
AMPENAN             AMPENAN                       PT POS                        
AMUNTAI             AMUNTAI                       PT POS                        
ANYAR               ANYAR                         PT POS                        
ARGAMAKMUR          ARGAMAKMUR                    PT POS                        
ASAHAN              ASAHAN                        PT POS                        
ATAMBUA             ATAMBUA                       PT POS                        
BAGAN BATU          BAGAN BATU                    PT POS                        
BALIK PAPAN         BALIKPAPAN                    NCS                           
BALIKPAPAN          BALIKPAPAN                    NCS                           
BALIKPAPAN (098)    BALIKPAPAN                    NCS                           
BALIKPAPAN(058)     BALIKPAPAN                    NCS                           
BALIKPAPAN(060)     BALIKPAPAN                    NCS                           
BALIKPAPAN(061)     BALIKPAPAN                    NCS                           
BALUNG              BALUNG                        PT POS                        
BALUNG BENDO KRIAN  BALUNG BENDO KRIAN            PT POS                        
BANDA ACEH          BANDA ACEH                    PT POS                        
BANDAR JAYA         BANDAR JAYA                   PT POS                        
35224               BANDAR LAMPUNG                NCS                           
BANDAR LAMPUNG      BANDAR LAMPUNG                NCS                           
BANDAR LAMPUNG      BANDAR LAMPUNG                NCS                           
BANDAR LAMPUNG(052) BANDAR LAMPUNG                NCS                           
BANDAR LAMPUNG(081) BANDAR LAMPUNG                NCS                           
BANDARLAMPUNG       BANDAR LAMPUNG                NCS                           
BANDARLAMPUNG(052)  BANDAR LAMPUNG                NCS                           
BANDARLAMPUNG(081)  BANDAR LAMPUNG                NCS                           
LAMPUNG             BANDAR LAMPUNG                NCS                           
LAMPUNG(052)        BANDAR LAMPUNG                NCS                           
LAMPUNG(081)        BANDAR LAMPUNG                NCS                           
MALAHAYATI          BANDAR LAMPUNG                NCS                           
NATAR               BANDAR LAMPUNG                NCS                           
PRINGSEWU           BANDAR LAMPUNG                NCS                           
TANJUNG KARANG      BANDAR LAMPUNG                NCS                           
TELUK BETUNG        BANDAR LAMPUNG                NCS                           
40272               BANDUNG                       PT POS                        
022-7212451         BANDUNG                       PT POS                        
ABANDUNG            BANDUNG                       PT POS                        
BAANDUNG            BANDUNG                       PT POS                        
BADNUNG             BANDUNG                       PT POS                        
BANADUNG            BANDUNG                       PT POS                        
BANDNG              BANDUNG                       PT POS                        
BANDU NG            BANDUNG                       PT POS                        
BANDUG              BANDUNG                       PT POS                        
BANDUGN             BANDUNG                       PT POS                        
BANDUN G            BANDUNG                       PT POS                        
BANDUNG             BANDUNG                       PT POS                        
BANDUNG((047)       BANDUNG                       PT POS                        
BANDUNG(019)        BANDUNG                       PT POS                        
BANDUNG(036)        BANDUNG                       PT POS                        
BANDUNG(047)        BANDUNG                       PT POS                        
BANDUNG(072)        BANDUNG                       PT POS                        
BANDUNG(073)        BANDUNG                       PT POS                        
BANDUNGR            BANDUNG                       PT POS                        
BANDUNH             BANDUNG                       PT POS                        
BANGDUNG            BANDUNG                       PT POS                        
BANUDNG             BANDUNG                       PT POS                        
BNADUNG             BANDUNG                       PT POS                        
CIAMAHI             BANDUNG                       PT POS                        
CIAMHI              BANDUNG                       PT POS                        
CIANJUR             BANDUNG                       PT POS                        
BOALEMO             BOALEMO                       PT POS                        
BOJONEGORO          BOJONEGORO                    PT POS                        
BONDOWOSO           BONDOWOSO                     PT POS                        
BOLAANG MONGONDO TIMBONE                          PT POS                        
BONE                BONE                          PT POS                        
WATAMPONE           BONE                          PT POS                        
BONE BOLANGO        BONE BOLANGO                  PT POS                        
BONEBOLANGO         BONEBOLANGO                   PT POS                        
BONG BOLANGO        BONG BOLANGO                  PT POS                        
BONTANG             BONTANG                       PT POS                        
BOYOLALI            BOYOLALI                      PT POS                        
BRAHRANG            BRAHRANG                      PT POS                        
BREBES              BREBES                        PT POS                        
BUKIT TINGGI        BUKIT TINGGI                  PT POS                        
BUKITTINGGI         BUKIT TINGGI                  PT POS                        
BULUKUMBA           BULUKUMBA                     PT POS                        
BULUNGAN            BULUNGAN                      PT POS                        
BUTON               BUTON                         PT POS                        
CAKRANEGARA         CAKRANEGARA                   PT POS                        
CAKRANEGARA LOMBOK  CAKRANEGARA LOMBOK            PT POS                        
CARUBAN             CARUBAN                       PT POS                        
CEPU                CEPU                          PT POS                        
CIAMI               CIAMIS                        PT POS                        
CIAMIS              CIAMIS                        PT POS                        
CIKAMPEK            CIKAMPEK                      PT POS                        
CIKANDE             CIKANDE                       PT POS                        
CILACAP             CILACAP                       PT POS                        
KROYA               CILACAP                       PT POS                        
CILEGON             CILEGON                       PT POS                        
CIRBON              CIREBON                       NCS                           
CIREBON             CIREBON                       NCS                           
CIREBON(065)        CIREBON                       NCS                           
CURUP               CURUP                         PT POS                        
DELI SERDANG        DELI SERDANG                  PT POS                        
DELISERDANG         DELISERDANG                   PT POS                        
DEMAK               DEMAK                         PT POS                        
80113               DENPASAR                      SAP                           
BADUNG              DENPASAR                      SAP                           
BALI                DENPASAR                      SAP                           
BALI(005)           DENPASAR                      SAP                           
BALI(014)           DENPASAR                      SAP                           
BALI(066)           DENPASAR                      SAP                           
DENPASAR            DENPASAR                      SAP                           
DENPASAR(005)       DENPASAR                      SAP                           
DENPASAR(014)       DENPASAR                      SAP                           
DENPASAR(066)       DENPASAR                      SAP                           
GIANYAR             DENPASAR                      SAP                           
GIANYAR(066)        DENPASAR                      SAP                           
KK LEGIAN           DENPASAR                      SAP                           
KUTA                DENPASAR                      SAP                           
KUTA BALI           DENPASAR                      SAP                           
LEGIAN              DENPASAR                      SAP                           
TABANAN             DENPASAR                      SAP                           
TAMPAK SIRING       DENPASAR                      SAP                           
TAMPAK SIRING(066)  DENPASAR                      SAP                           
UBUD                DENPASAR                      SAP                           
DHAMASRAYA          DHAMASRAYA                    PT POS                        
DONGGALA            DONGGALA                      PT POS                        
DUMAI               DUMAI                         PT POS                        
DURI                DURI                          PT POS                        
ENDE FLORES         ENDE FLORES                   PT POS                        
FAK-FAK             FAKFAK PAPUA                  PT POS                        
FAKFAK PAPUA        FAKFAK PAPUA                  PT POS                        
FLORES              FLORES                        PT POS                        
GAMBUT              GAMBUT                        PT POS                        
GARANG GARENG       GARANG GARENG                 PT POS                        
GARUT               GARUT                         PT POS                        
BUNGO               JAMBI                         NCS                           
JAMBI               JAMBI                         NCS                           
JAMBI(055)          JAMBI                         NCS                           
JATIBARANG          JATIBARANG                    PT POS                        
JAWA TENGAH         JAWA TENGAH                   PT POS                        
JAYA PURA           JAYA PURA                     PT POS                        
JAYAPURA            JAYAPURA                      PT POS                        
JEMBER              JEMBER                        NCS                           
JEMBER              JEMBER                        NCS                           
JEPARA              JEPARA                        PT POS                        
JOMBANG             JOMBANG                       PT POS                        
JOMBANG             JOMBANG                       PT POS                        
JOMBANG(011)        JOMBANG                       PT POS                        
KAJEN               KAJEN                         PT POS                        
KALIANDA            KALIANDA                      PT POS                        
KALIMANTAN          KALIMANTAN                    PT POS                        
KALIMANTAN BARAT    KALIMANTAN BARAT              PT POS                        
KALIMANTAN SELATAN  KALIMANTAN SELATAN            PT POS                        
BUNTOK KALTENG      KALIMANTAN TENGAH             PT POS                        
KALIMANTAN TENGAH   KALIMANTAN TENGAH             PT POS                        
KALIMANTAN TIMUR    KALIMANTAN TIMUR              PT POS                        
KALISAT             KALISAT                       PT POS                        
KALSEL              KALSEL                        PT POS                        
KAMAL               KAMAL                         PT POS                        
KAMPAR              KAMPAR                        PT POS                        
KANDAL              KANDAL                        PT POS                        
KANDANGAN           KANDANGAN                     PT POS                        
KAPUAS              KAPUAS                        PT POS                        
SANGGAN             KAPUAS                        PT POS                        
KARANG JATI         KARANG JATI                   PT POS                        
KARANGANYER         KARANGANYER                   PT POS                        
KARANGASEM          KARANGASEM                    PT POS                        
KARAWANG            KARAWANG                      SAP                           
KAWARANG            KARAWANG                      SAP                           
KARIMUN             KARIMUN                       PT POS                        
KARO                KARO                          PT POS                        
KARTANEGARA         KARTANEGARA                   PT POS                        
KARTO SURO          KARTOSURO                     PT POS                        
KARTOSURO           KARTOSURO                     PT POS                        
KATAPANG            KATAPANG                      PT POS                        
KAWAL               KAWAL                         PT POS                        
KEBUMEN             KEBUMEN                       PT POS                        
64122               KEDIRI                        PT POS                        
KEDIRI              KEDIRI                        PT POS                        
KEDIRI(032)         KEDIRI                        PT POS                        
KENDAL              KENDAL                        PT POS                        
KENDARI             KENDARI                       PT POS                        
KERINCI             KERINCI                       PT POS                        
KERTOSONO           KERTOSONO                     PT POS                        
KETAPANG            KETAPANG                      PT POS                        
KIJANG              KIJANG                        PT POS                        
KIJANG BINTAN TIMUR KIJANG BINTAN TIMUR           PT POS                        
KLUNGKUNG           KLUNGKUNG                     PT POS                        
KOLAKA              KOLAKA                        PT POS                        
KONAWE              KONAWE                        PT POS                        
KONSEL              KONSEL                        PT POS                        
KOTA BARU           KOTA BARU                     PT POS                        
KOTABARU            KOTABARU                      PT POS                        
KOTAMOBAGU          KOTAMOBAGU                    PT POS                        
KOTAWARINGIN BARAT  KOTAWARINGIN BARAT            PT POS                        
KRAKSAAN            KRAKSAAN                      PT POS                        
KRIAN               KRIAN                         PT POS                        
KUALA KAPUAS        KUALA KAPUAS                  PT POS                        
KUALA KENCANA       KUALA KENCANA                 PT POS                        
KUALA MARABAHAN     KUALA MARABAHAN               PT POS                        
KUALAKAPUAS         KUALAKAPUAS                   PT POS                        
KUALAKENCANA        KUALAKENCANA                  PT POS                        
MENADO              MANADO                        NCS                           
MENADO(075)         MANADO                        NCS                           
MANGKUTANA          MANGKUTANA                    PT POS                        
MANOKWARI           MANOKWARI                     PT POS                        
MANUKWARI           MANUKWARI                     PT POS                        
MARABAHAN           MARABAHAN                     PT POS                        
MARAUKE             MARAUKE                       PT POS                        
MERAUKE             MARAUKE                       PT POS                        
MAROS               MAROS                         PT POS                        
MARTAPURA           MARTAPURA                     PT POS                        
MASAMBA             MASAMBA                       PT POS                        
MATARAM             MATARAM                       PT POS                        
MAUMERE             MAUMERE                       PT POS                        
20000               MEDAN                         NCS                           
20157               MEDAN                         NCS                           
BERASTAGIH          MEDAN                         NCS                           
BINJAI              MEDAN                         NCS                           
DELI SERDANG        MEDAN                         NCS                           
MEDAN               MEDAN                         NCS                           
MEDAN CIREBON       MEDAN                         NCS                           
MEDAN MT HARYONO    MEDAN                         NCS                           
MEDAN(045)          MEDAN                         NCS                           
MEDAN(057)          MEDAN                         NCS                           
MEDAN(078)          MEDAN                         NCS                           
MENDAN              MEDAN                         NCS                           
T MORAWA            MEDAN                         NCS                           
MELAWI              MELAWI                        PT POS                        
METRO               METRO                         PT POS                        
METRO LAMPUNG       METRO LAMPUNG                 PT POS                        
MINAHASA            MINAHASA                      PT POS                        
MINAHASA UTARA      MINAHASA UTARA                PT POS                        
MOJOAGUNG           MOJOAGUNG                     PT POS                        
MOJOEKRTO           MOJOKERTO                     PT POS                        
MOJOKERTO           MOJOKERTO                     PT POS                        
MOJOSARI            MOJOSARI                      PT POS                        
MOJOSONGO           MOJOSONGO                     PT POS                        
MOROWALI            MOROWALI                      PT POS                        
MUARA BADAK         MUARA BADAK                   PT POS                        
MUARA BULIAN        MUARA BULIAN                  PT POS                        
MUARABULIAN         MUARA BULIAN                  PT POS                        
MUARA BUNGO         MUARA BUNGO                   PT POS                        
MUARA ENIM          MUARA ENIM                    PT POS                        
MUARA TEWEH         MUARA TEWEH                   PT POS                        
MUNGKID             MUNGKID                       PT POS                        
NABIRE              NABIRE                        PT POS                        
NATUNA              NATUNA                        PT POS                        
NGADA FLORES        NGADA FLORES                  PT POS                        
NGANJUK             NGANJUK                       PT POS                        
NGAWI               NGAWI                         PT POS                        
NGUNUT              NGUNUT                        PT POS                        
NUSA DUA            NUSA DUA                      PT POS                        
OGAN ILIR           OGAN ILIR                     PT POS                        
OGAN KOMELING       OGAN KOMELING                 PT POS                        
PACITAN             PACITAN                       PT POS                        
PADANG              PADANG                        PT POS                        
PADANG(053)         PADANG                        PT POS                        
PAGAR ALAM          PAGAR ALAM                    PT POS                        
PAINAN              PAINAN                        PT POS                        
PALANGKA RAYA       PALANGKA RAYA                 PT POS                        
PALANGKARAYA        PALANGKARAYA                  PT POS                        
OKU                 PALEMBANG                     SAP                           
PAELMBANG           PALEMBANG                     SAP                           
PALEMBANG           PALEMBANG                     SAP                           
PALEMBANG SAYANGAN  PALEMBANG                     SAP                           
PALEMBANG(068)      PALEMBANG                     SAP                           
PALOPO              PALOPO                        PT POS                        
RAHA                PALOPO                        PT POS                        
ROKAN HULU          ROKAN HULU                    PT POS                        
SALATIGA            SALATIGA                      NCS                           
SAMARINA            SAMARINDA                     PT POS                        
SAMARINDA           SAMARINDA                     PT POS                        
SAMARINDA(058)      SAMARINDA                     PT POS                        
SAMARINDA (099)     SAMARINDA 1                   PT POS                        
SAMARINDA (099)     SAMARINDA 1                   PT POS                        
SAMARINDA 099       SAMARINDA 1                   PT POS                        
SAMARINDA(099)      SAMARINDA 1                   PT POS                        
SAMARINDA099        SAMARINDA 1                   PT POS                        
SAMBAS              SAMBAS                        PT POS                        
SAMPIT              SAMPIT                        PT POS                        
SANGATA             SANGATA                       PT POS                        
SANGATTA            SANGATTA                      PT POS                        
SANGGATTA           SANGGATTA                     PT POS                        
SANGGAU             SANGGAU                       PT POS                        
SELAYAR             SELAYAR                       PT POS                        
SELONG              SELONG                        PT POS                        
50133               SEMARANG                      NCS                           
KAB SEMARANG        SEMARANG                      PT POS                        
SEMARAG             SEMARANG                      NCS                           
SEMARANG            SEMARANG                      NCS                           
SEMARANG(001)       SEMARANG                      NCS                           
SEMARANG(033)       SEMARANG                      NCS                           
UNGARAN             SEMARANG                      NCS                           
SEMARANGAN          SEMARANGAN                    PT POS                        
SENGATA             SENGATA                       PT POS                        
SENGKANG            SENGKANG                      PT POS                        
SEPANJANG           SEPANJANG                     PT POS                        
SERANG              SERANG                        PT POS                        
SERANG,SERANG       SERANG                        PT POS                        
SERUYAH             SERUYAH                       PT POS                        
SIBOLGA             SIBOLGA                       PT POS                        
SIDENRENG RAPPANG   SIDENRENG RAPPANG             PT POS                        
KAB.SIDOARJO        SIDOARJO                      NCS                           
SIDARJO             SIDOARJO                      NCS                           
SIDOARJO            SIDOARJO                      NCS                           
SIDOHARJO           SIDOARJO                      NCS                           
SIDORJO             SIDOARJO                      NCS                           
SIDUARJO            SIDOARJO                      NCS                           
SISOARJO            SIDOARJO                      PT POS                        
SURABYA             SIDOARJO                      NCS                           
SIDRAP              SIDRAP                        PT POS                        
SIMALUNGUN          SIMALUNGUN                    PT POS                        
SINGARAJA           SINGARAJA                     PT POS                        
SINGKAWANG          SINGKAWANG                    PT POS                        
SINTANG             SINTANG                       PT POS                        
SITUBONDO           SITUBONDO                     PT POS                        
SLAWI               SLAWI                         PT POS                        
SOKARAJA            SOKARAJA                      PT POS                        
GROGOL SUKOHARJO 575SOLO                          SAP                           
KARANG ANYAR        SOLO                          PT POS                        
KARANGANYAR         SOLO                          PT POS                        
KARTASURA           SOLO                          PT POS                        
KARTASURO           SOLO                          PT POS                        
SOLO                SOLO                          PT POS                        
SOLO(051)           SOLO                          PT POS                        
SOLO(083)           SOLO                          PT POS                        
SRAGEN              SOLO                          PT POS                        
SUKAHARJO           SOLO                          PT POS                        
SUKAKARTA           SOLO                          PT POS                        
SUKO HARJO          SOLO                          SAP                           
SUKOARJO            SOLO                          SAP                           
SUKOHARJO           SOLO                          SAP                           
SURAKARA            SOLO                          SAP                           
SURAKARTA           SOLO                          SAP                           
SURAKARTA(051)      SOLO                          SAP                           
TANJUNG PINANG      TANJUNG PINANG                PT POS                        
TANJUNG PINANG (056)TANJUNG PINANG                PT POS                        
TANJUNGPINANG       TANJUNG PINANG                PT POS                        
TANJUNG REDEB (07731TANJUNG REDEB (07731          PT POS                        
TANJUNG SELOR       TANJUNG SELOR                 PT POS                        
TANJUNG UBAN        TANJUNG UBAN                  PT POS                        
TAPIN               TAPIN                         PT POS                        
NUNUKAN             TARAKAN                       PT POS                        
TARAKAN             TARAKAN                       PT POS                        
TARAKANA            TARAKAN                       PT POS                        
TASIK MALAYA        TASIKMALAYA                   NCS                           
TASIKMALAYA         TASIKMALAYA                   NCS                           
TEBING TINGGI       TEBING TINGGI                 PT POS                        
TEBO                TEBO                          PT POS                        
TEGAL               TEGAL                         NCS                           
TEMANGGUNG          TEMANGGUNG                    PT POS                        
TEMBAGA PURA        TEMBAGA PURA                  PT POS                        
TEMBAGA PURA        TEMBAGA PURA                  PT POS                        
TEMBAGAPURA         TEMBAGAPURA                   PT POS                        
TENGGARANG          TENGGARANG                    PT POS                        
TENGGARONG          TENGGARONG                    PT POS                        
TENGGILIS           TENGGILIS                     PT POS                        
TERNATE             TERNATE                       PT POS                        
TERNATE UTARA       TERNATE UTARA                 PT POS                        
TIDORE              TIDORE                        PT POS                        
TIMIKA              TIMIKA                        PT POS                        
TOLI-TOLI           TOLI-TOLI                     PT POS                        
TOMOHON             TOMOHON                       PT POS                        
TONDANO             TONDANO                       PT POS                        
TRENGGALEK          TRENGGALEK                    PT POS                        
TUBAN               TUBAN                         PT POS                        
TULUNG AGUNG        TULUNG AGUNG                  PT POS                        
TULUNGAGUNG         TULUNG AGUNG                  PT POS                        
UJUNG GADING        UJUNG GADING                  PT POS                        
UNAAHA              UNAAHA                        PT POS                        
WAJO (SIWA)         WAJO (SIWA)                   PT POS                        
WALENRANG           WALENRANG                     PT POS                        
WANGON              WANGON                        PT POS                        
WARINGIN TIMUR      WARINGIN TIMUR                PT POS                        
WARUDOYONG          WARUDOYONG                    PT POS                        
WELERI              WELERI                        PT POS                        
WONOGIRI            WONOGIRI                      PT POS                        
WONOSOBO            WONOSOBO                      PT POS                        
55182               YOGYAKARTA                    NCS                           
BANTUL              YOGYAKARTA                    NCS                           
GUNUNG KIDUL        YOGYAKARTA                    NCS                           
GUNUNGKIDUL         YOGYAKARTA                    NCS                           
IMOGIRI             YOGYAKARTA                    NCS                           
JOGJAKARTA          YOGYAKARTA                    NCS                           
JOGJAKARTA(034)     YOGYAKARTA                    NCS                           
JOGJAKARTA(084)     YOGYAKARTA                    NCS                           
JOGYAKARTA          YOGYAKARTA                    NCS                           
KALI URANG          YOGYAKARTA                    NCS                           
KALIURANG           YOGYAKARTA                    NCS                           
KLATEN              YOGYAKARTA                    NCS                           
MAGELANG            YOGYAKARTA                    NCS                           
MUNTILAN            YOGYAKARTA                    NCS                           
PARANGTRITIS        YOGYAKARTA                    NCS                           
PRAMBANAN           YOGYAKARTA                    NCS                           
SLEMAN              YOGYAKARTA                    NCS                           
SLEMAN(034)         YOGYAKARTA                    NCS                           
SLEMAN(084)         YOGYAKARTA                    NCS                           
SLEMAN,YOGYAKARTA   YOGYAKARTA                    NCS                           
TURI                YOGYAKARTA                    NCS                           
WATES               YOGYAKARTA                    NCS                           
WONOSARI            YOGYAKARTA                    NCS                           
YOGAYAKARTA         YOGYAKARTA                    NCS                           
CIBEUNYING KALER    BANDUNG                       PT POS                        
CIMAHI              BANDUNG                       PT POS                        
CIMAHI32040468116700BANDUNG                       PT POS                        
KAB .BANDUNG        BANDUNG                       PT POS                        
KAB BANDUNG         BANDUNG                       PT POS                        
KAB.BANDUNG         BANDUNG                       PT POS                        
KOPO                BANDUNG                       PT POS                        
PADALARANG          BANDUNG                       PT POS                        
PASIR KALIKI        BANDUNG                       PT POS                        
SETRA SARI          BANDUNG                       PT POS                        
SETRASARI           BANDUNG                       PT POS                        
BANGGAI             BANGGAI                       PT POS                        
BANGKA              BANGKA                        PT POS                        
BANGKA BELITUNG     BANGKA BELITUNG               PT POS                        
BANGKALAN           BANGKALAN                     PT POS                        
BANGKIANG           BANGKIANG                     PT POS                        
BANGLI              BANGLI                        PT POS                        
BANJAR              BANJAR                        PT POS                        
BAJARMASIN          BANJARMASIN                   NCS                           
BANAJARMASIN        BANJARMASIN                   NCS                           
BANJAARMASIN        BANJARMASIN                   NCS                           
BANJAMASIN          BANJARMASIN                   NCS                           
BANJAR BARU         BANJARMASIN                   NCS                           
BANJAR(061)         BANJARMASIN                   NCS                           
BANJARAMSIN         BANJARMASIN                   NCS                           
BANJARBARU          BANJARMASIN                   NCS                           
BANJARMASIN         BANJARMASIN                   NCS                           
BANJARMASIN(061)    BANJARMASIN                   NCS                           
BANJARMSIN          BANJARMASIN                   NCS                           
BANJARNEGARA        BANJARNEGARA                  PT POS                        
BANJARSARI          BANJARSARI                    PT POS                        
BANTEN              BANTEN                        PT POS                        
BANYUASIN           BANYUASIN                     PT POS                        
BANYUMANIK          BANYUMANIK                    PT POS                        
BANYUMAS            BANYUMAS                      PT POS                        
BANYUWANGI          BANYUWANGI                    PT POS                        
BARABAI             BARABAI                       PT POS                        
BARITO KUALA        BARITO KUALA                  PT POS                        
BARITOKUALA         BARITOKUALA                   PT POS                        
BARRU               BARRU                         PT POS                        
BATAM               BATAM                         NCS                           
BATAM(054)          BATAM                         NCS                           
BATAM(056)          BATAM                         NCS                           
KEPRI               BATAM                         NCS                           
BATANG              BATANG                        PT POS                        
BATANG,JAWA TENGAH  BATANG                        PT POS                        
BATURAJA            BATURAJA                      PT POS                        
BATURAJA OKU        BATURAJA OKU                  PT POS                        
BAU BAU             BAU BAU                       PT POS                        
BAWEN               BAWEN                         PT POS                        
BAYUWANGI           BAYUWANGI                     PT POS                        
BELAWAN             BELAWAN                       PT POS                        
BELITUNG            BELITUNG                      PT POS                        
BELOPA              BELOPA                        PT POS                        
BENGKALIS           BENGKALIS                     PT POS                        
BENGKULU            BENGKULU                      PT POS                        
BERASTAGI           BERASTAGI                     PT POS                        
BERAU               BERAU                         PT POS                        
BIAK                BIAK                          PT POS                        
BIMA                BIMA                          PT POS                        
BINJAI              BINJAI                        PT POS                        
BINTAN              BINTAN                        PT POS                        
BINTAN TIMUR        BINTAN TIMUR                  PT POS                        
BITUNG              BITUNG                        PT POS                        
BLITAR              BLITAR                        PT POS                        
BLORA               BLORA                         PT POS                        
GOA                 GOA                           PT POS                        
GOMBONG             GOMBONG                       PT POS                        
GORONTALO           GORONTALO                     PT POS                        
GOWA                GOWA                          PT POS                        
GRESIK              GRESIK                        PT POS                        
GRESIK(025)         GRESIK                        PT POS                        
GROBOGAN            GROBOGAN                      PT POS                        
GUNUNG MAS          GUNUNG MAS                    PT POS                        
HALMAHERA SELATAN   HALMAHERA SELATAN             PT POS                        
INDRALAYA           INDRALAYA                     PT POS                        
INDRAMAYU           INDRAMAYU                     PT POS                        
AJKARTA             JABODETABEK                   NCS                           
BEKA                JABODETABEK                   SAP                           
BEKAS1              JABODETABEK                   SAP                           
BEKASI              JABODETABEK                   SAP                           
BEKSI               JABODETABEK                   SAP                           
BOGOR               JABODETABEK                   SAP                           
BOGOR(049)          JABODETABEK                   SAP                           
BOGOR(071)          JABODETABEK                   SAP                           
BOGOR(091)          JABODETABEK                   SAP                           
CENGKARENG          JABODETABEK                   SAP                           
CIBINONG            JABODETABEK                   SAP                           
CIBUBUR             JABODETABEK                   SAP                           
CIKARANG            JABODETABEK                   SAP                           
CILEUNGSI           JABODETABEK                   SAP                           
CIPANAS             JABODETABEK                   SAP                           
CIPUTAT             JABODETABEK                   SAP                           
DEP0K               JABODETABEK                   NCS                           
DEPOK               JABODETABEK                   NCS                           
DEPOK(001)          JABODETABEK                   NCS                           
GUNUNG SINDUR       JABODETABEK                   NCS                           
JAAKRTA             JABODETABEK                   NCS                           
JAKARA              JABODETABEK                   NCS                           
JAKARAT             JABODETABEK                   NCS                           
JAKARATA            JABODETABEK                   NCS                           
JAKARATA BARAT      JABODETABEK                   NCS                           
JAKART              JABODETABEK                   NCS                           
JAKARTA             JABODETABEK                   NCS                           
JAKARTA-BARAT       JABODETABEK                   NCS                           
JAKARTA-PUSAT       JABODETABEK                   NCS                           
JAKARTA-SELATAN     JABODETABEK                   NCS                           
JAKARTA-TIMUR       JABODETABEK                   NCS                           
JAKARTA-UTARA       JABODETABEK                   NCS                           
JAKARTRA            JABODETABEK                   NCS                           
JAKATA              JABODETABEK                   NCS                           
JAKBAR              JABODETABEK                   NCS                           
JAK-BAR             JABODETABEK                   NCS                           
JAKPUS              JABODETABEK                   NCS                           
JAK-PUS             JABODETABEK                   NCS                           
JAKRTA              JABODETABEK                   NCS                           
JAKSEL              JABODETABEK                   NCS                           
JAK-SEL             JABODETABEK                   NCS                           
JAKTIM              JABODETABEK                   NCS                           
JAK-TIM             JABODETABEK                   NCS                           
JAKUT               JABODETABEK                   NCS                           
JAK-UT              JABODETABEK                   NCS                           
JKARTA              JABODETABEK                   NCS                           
KERAWANG            JABODETABEK                   PT POS                        
SERPONG             JABODETABEK                   PT POS                        
TANGERANG           JABODETABEK                   NCS                           
TANGERANG(012)      JABODETABEK                   NCS                           
TANGERANG(022)      JABODETABEK                   NCS                           
TANGERANG(042)      JABODETABEK                   NCS                           
TANGERANG(065)      JABODETABEK                   NCS                           
TANGERANG(067)      JABODETABEK                   NCS                           
TANGGERANG          JABODETABEK                   NCS                           
TANGRANG            JABODETABEK                   NCS                           
KUDUS               KUDUS                         NCS                           
KULON PROGO         KULON PROGO                   PT POS                        
KULONPROGO          KULONPROGO                    PT POS                        
KUNINGAN            KUNINGAN                      PT POS                        
KUPANG              KUPANG                        PT POS                        
KUTAI               KUTAI                         PT POS                        
LABUHAN BATU        LABUHAN BATU                  PT POS                        
LABUHAN BATU        LABUHAN BATU                  PT POS                        
LABUKANG            LABUKANG                      PT POS                        
LAHAT               LAHAT                         PT POS                        
DEMAK               LAIN-LAIN                     PT POS                        
LAIN-LAIN           LAIN-LAIN                     PT POS                        
SAN FRANSISCO       LAIN-LAIN                     CARD CENTER                   
LAMASI              LAMASI                        PT POS                        
LAMONGAN            LAMONGAN                      PT POS                        
LANGKAT             LANGKAT                       PT POS                        
LAWANG              LAWANG                        PT POS                        
LEBAK               LEBAK                         PT POS                        
LEMBANG             LEMBANG                       PT POS                        
LOMBOK              LOMBOK                        PT POS                        
LOMBOK BARAT        LOMBOK BARAT                  PT POS                        
LOMBOK TENGAH       LOMBOK TENGAH                 PT POS                        
LOMBOK TIMUR        LOMBOK TIMUR                  PT POS                        
LOWOKWARU           LOWOKWARU                     PT POS                        
LUBUK BASUNG        LUBUK BASUNG                  PT POS                        
LUBUK LINGGAU       LUBUK LINGGAU                 PT POS                        
LUBUK PAKAM         LUBUK PAKAM                   PT POS                        
LUBUKSIKAPING       LUBUKSIKAPING                 PT POS                        
LUMAJANG            LUMAJANG                      PT POS                        
LUWU                LUWU                          PT POS                        
MADIUN              MADIUN                        SAP                           
MADURA              MADURA                        PT POS                        
MADYA BITUNG        MADYA BITUNG                  PT POS                        
MAGETAN             MAGETAN                       PT POS                        
MAJALAYA            MAJALAYA                      PT POS                        
MAJALENGKA          MAJALENGKA                    PT POS                        
MAJENANG            MAJENANG                      PT POS                        
MAJENE              MAJENE                        PT POS                        
MAJENNE             MAJENNE                       PT POS                        
90000               MAKASSAR                      SAP                           
GOWA                MAKASSAR                      SAP                           
MAKASAR             MAKASSAR                      SAP                           
MAKASAR(062)        MAKASSAR                      SAP                           
MAKASAR(085)        MAKASSAR                      SAP                           
MAKASSAR            MAKASSAR                      SAP                           
MAKASSAR PANAKUKANG MAKASSAR                      SAP                           
MAKASSAR(062)       MAKASSAR                      SAP                           
MAKASSAR(085)       MAKASSAR                      SAP                           
MAKASSAR-GOWA       MAKASSAR                      SAP                           
MAKSSAR             MAKASSAR                      SAP                           
UJUNG PANDANG       MAKASSAR                      SAP                           
UJUNGPANDANG        MAKASSAR                      SAP                           
MALALAYANG          MALALAYANG                    PT POS                        
BATU                MALANG                        SAP                           
MALANG              MALANG                        SAP                           
MALANG(010)         MALANG                        SAP                           
MALANG(025)         MALANG                        SAP                           
MALANG(064)         MALANG                        SAP                           
MALILI              MALILI                        PT POS                        
MALINGPING          MALINGPING                    PT POS                        
MALUKU              MALUKU                        PT POS                        
MALUKU UTARA        MALUKU UTARA                  PT POS                        
MAMMUJU             MAMUJU                        PT POS                        
MAMUJU              MAMUJU                        PT POS                        
MANADO              MANADO                        NCS                           
MANADO(075)         MANADO                        NCS                           
MANAOD              MANADO                        NCS                           
PALU                PALU                          PT POS                        
POLEWALI            PALU                          PT POS                        
PALUR               PALUR                         PT POS                        
PAMEKASAN           PAMEKASAN                     PT POS                        
PANAKUKANG          PANAKUKANG                    PT POS                        
PANDAAN             PANDAAN                       PT POS                        
PANDEGLANG          PANDEGLANG                    PT POS                        
PANGANDARAN         PANGANDARAN                   PT POS                        
PANGKAL PINANG      PANGKAL PINANG                PT POS                        
PANGKALPINANG       PANGKAL PINANG                PT POS                        
PANGKALAN BUN       PANGKALAN BUN                 PT POS                        
PANGKALANBUN        PANGKALAN BUN                 PT POS                        
PANGKEP             PANGKEP                       PT POS                        
PAPUA               PAPUA                         PT POS                        
PARE PARE           PARE PARE                     PT POS                        
PAREPARE            PAREPARE                      PT POS                        
PARE-PARE           PARE-PARE                     PT POS                        
PARIAMAN            PARIAMAN                      PT POS                        
PARIGI              PARIGI                        PT POS                        
PARIGI MOUTONG      PARIGI MOUTONG                PT POS                        
PASAMAN             PASAMAN                       PT POS                        
PASURUAN            PASURUAN                      PT POS                        
PATI                PATI                          PT POS                        
PAYAKUMBUH          PAYAKUMBUH                    PT POS                        
PEKALONGAN          PEKALONGAN                    NCS                           
PEKAN BARU          PEKANBARU                     PT POS                        
PEKANBARU           PEKANBARU                     PT POS                        
PEKANBARU(054)      PEKANBARU                     PT POS                        
RIAU                PEKANBARU                     PT POS                        
TEMBILAHAN          PEKANBARU                     PT POS                        
PELAI HARI          PELAI HARI                    PT POS                        
PELAIHARI           PELAIHARI                     PT POS                        
PEMALANG            PEMALANG                      PT POS                        
PEMANGKAT           PEMANGKAT                     PT POS                        
P.SIANTAR           PEMATANG SIANTAR              PT POS                        
PEMATANG SIANTAR    PEMATANG SIANTAR              PT POS                        
PEMATANG SINTAR     PEMATANG SIANTAR              PT POS                        
PEMATANG SUANTAR    PEMATANG SIANTAR              PT POS                        
PEMATANGSIANTAR     PEMATANG SIANTAR              PT POS                        
PESAWAHAN           PESAWAHAN                     PT POS                        
PESISIR SELATAN     PESISIR SELATAN               PT POS                        
PINOH               PINOH                         PT POS                        
PINRANG             PINRANG                       PT POS                        
PLEIHARI            PLEIHARI                      PT POS                        
POHUWATO            POHUWATO                      PT POS                        
POLMAN              POLMAN                        PT POS                        
PONOROGO            PONOROGO                      PT POS                        
PONTIANAK           PONTIANAK                     NCS                           
PONTOANAK           PONTIANAK                     NCS                           
POSO                POSO                          PT POS                        
PRABU MULIH         PRABUMULIH                    PT POS                        
PRABUMULIH          PRABUMULIH                    PT POS                        
PROBOLINGGO         PROBOLINGGO                   PT POS                        
PULAU BRAYAN DARAT IPULAU BRAYAN DARAT II         PT POS                        
PURBALINGGA         PURBALINGGA                   PT POS                        
PURBALINGO          PURBALINGO                    PT POS                        
PURUK CAHU          PURUK CAHU                    PT POS                        
PURWAKARTA          PURWAKARTA                    PT POS                        
PURWODADI           PURWODADI                     PT POS                        
PURWOKERTO          PURWOKERTO                    PT POS                        
PURWOREJO           PURWOREJO                     PT POS                        
RANGKAS BITUNG      RANGKAS BITUNG                PT POS                        
RANGKASBITUNG       RANGKAS BITUNG                PT POS                        
RANTAU              RANTAU                        PT POS                        
RANTAU PRAPAT       RANTAU PRAPAT                 PT POS                        
REMBANG             REMBANG                       PT POS                        
RENGAT              RENGAT                        PT POS                        
SURAKARTA(083)      SOLO                          SAP                           
SURKARTA            SOLO                          SAP                           
DARMAS RAYA         SOLOK                         PT POS                        
SOLOK               SOLOK                         PT POS                        
SORONG              SORONG                        PT POS                        
SOROWAKO            SOROWAKO                      PT POS                        
SUBANG              SUBANG                        PT POS                        
SUKABMI             SUKABUMI                      NCS                           
SUKABUMI            SUKABUMI                      NCS                           
SURADE              SUKABUMI                      NCS                           
SUKARAMAI           SUKARAMAI                     PT POS                        
SUKOLILO            SUKOLILO                      PT POS                        
SUKUN               SUKUN                         PT POS                        
SULAWESI            SULAWESI                      PT POS                        
WATAMPONE           SULAWESI                      PT POS                        
SULAWESI BARAT      SULAWESI BARAT                PT POS                        
BAJO                SULAWESI SELATAN              PT POS                        
RANTE PAO           SULAWESI SELATAN              PT POS                        
SULAWESI SELATAN    SULAWESI SELATAN              PT POS                        
SULUT               SULAWESI UTARA                PT POS                        
WAIKANAN            SUMATERA SELATAN              PT POS                        
SUMATERA UTARA      SUMATERA UTARA                PT POS                        
SUMBA BARAT         SUMBA BARAT                   PT POS                        
SUMBAWA             SUMBAWA                       PT POS                        
SUMBAWA BESAR       SUMBAWA BESAR                 PT POS                        
SUMEDANG            SUMEDANG                      PT POS                        
SUMENEP             SUMENEP                       PT POS                        
SUNGAI DANAU        SUNGAI DANAU                  PT POS                        
SUNGAI SINYO        SUNGAI SINYO                  PT POS                        
SUNGGU MINASA       SUNGGU MINASA                 PT POS                        
SUNGGUMINASA        SUNGGUMINASA                  PT POS                        
SUNGUMINAHASA       SUNGUMINAHASA                 PT POS                        
SUPPA PINRANG       SUPPA PINRANG                 PT POS                        
60117               SURABAYA                      NCS                           
60145               SURABAYA                      NCS                           
KAPAS KRAMPUNG      SURABAYA                      NCS                           
KEDUNG DORO         SURABAYA                      NCS                           
KEMBANG JEPUN       SURABAYA                      NCS                           
KERTAJAYA           SURABAYA                      NCS                           
SUARABAYA           SURABAYA                      NCS                           
SURABA              SURABAYA                      NCS                           
SURABAY             SURABAYA                      NCS                           
SURABAYA            SURABAYA                      NCS                           
SURABAYA            SURABAYA                      NCS                           
SURABAYA(004)       SURABAYA                      NCS                           
SURABAYA(007)       SURABAYA                      NCS                           
SURABAYA(008)       SURABAYA                      NCS                           
SURABAYA(009)       SURABAYA                      NCS                           
SURABAYA(038)       SURABAYA                      NCS                           
SURABAYA(044)       SURABAYA                      NCS                           
SURABAYA(063)       SURABAYA                      NCS                           
SURANAYA            SURABAYA                      NCS                           
SURFABAYA           SURABAYA                      NCS                           
SWETA               SWETA                         PT POS                        
TAKALAR             TAKALAR                       PT POS                        
TANA TIDUNG         TANA TIDUNG                   PT POS                        
TANAH BUMBU         TANAH BUMBU                   PT POS                        
TANAH GROGOT        TANAH GROGOT                  PT POS                        
TANAH LAUT          TANAH LAUT                    PT POS                        
TANAH TORAJA        TANAH TORAJA                  PT POS                        
TORAJA              TANAH TORAJA                  PT POS                        
TANGGAMUS           TANGGAMUS                     PT POS                        
TANJUNG             TANJUNG                       PT POS                        
TANJUNG  ENIM       TANJUNG  ENIM                 PT POS                        
TANJUNG BALAI       TANJUNG BALAI                 PT POS                        
TANJUNG BALAI KARIMUTANJUNG BALAI KARIMU          PT POS                        
TANJUNG MORAWA      TANJUNG MORAWA                PT POS                        
YOGJAKARTA          YOGYAKARTA                    NCS                           
YOGYAKART           YOGYAKARTA                    NCS                           
YOGYAKARTA          YOGYAKARTA                    NCS                           
YOGYAKARTA SRIWEDARIYOGYAKARTA                    NCS                           
YOGYAKARTA(005)     YOGYAKARTA                    NCS                           
YOGYAKARTA(034)     YOGYAKARTA                    NCS                           
YOGYAKARTA(084)     YOGYAKARTA                    NCS                           
YOGYAKARTA(801)     YOGYAKARTA                    NCS                           
YOKYAKARTA          YOGYAKARTA                    NCS                           
