{
  "type": "service_account",
  "project_id": "rim-web-v2-1571640333794",
  "private_key_id": "6a873d99ab38c37e40b0b127c54837d5d20a24c5",
  "private_key": "-----BEGIN PRIVATE KEY-----\nMIIEvgIBADANBgkqhkiG9w0BAQEFAASCBKgwggSkAgEAAoIBAQDK2pj3I6xEDp5p\nqEOrJUdqNF2SBl+sooRg2Wuq5/yNqdkfEKOEcTXHsTvIuth0Y2My/oSG6TBgbJwd\nVQMLQFOsQVM6/unTd/X3GnHjtqBMKyXcOuWV1IMQ3oucddOhWioy73GD3BcLPL93\nrTrLTl11sboDy53IuCwlh4fETe0r3anSPypVRg7XYOf2gBaLXuf5Vjrv19/xzrjj\nTMeqSeDCkwvhHxnG5EjLyI0AX7GT2+yeLdX0FEvn5Edjy2guDusJRlxx3/w4Q5sM\nV+miJRshNdNIweGAS0vvRjWF5aB3l4rXBOTfdeOBh+qPGqFbK6Rw9LIDZqURJRF7\nVZxURxwhAgMBAAECggEASBEfNPXsdoVHDDxmRgBJfda6w20WQmu+YfX8RUyDsgR8\niYfMv/nEZHx3w9l1muvQS0aW6KMht6/+SoFwQmgJEfJnUldL1QASV0aC3aZ9DnJp\n0fLuq6tDIRQfP2ew1usEgPIGPxVK7ogXcboOYDooA+8vKbgGB1A/Bto+hqQ0tVc5\nVACM9NdSMsSI6E7JVccZPGfXLadSfCXotlv2w8iVv9EduZ2UIFcFzxfpPV5KFov/\nUR9Ib/dZUoahR2wfVLh4SfN7UIZh/fPtOBDL2EVA9WWTlS1k4ZSHfUCQi6fHlsXG\nNJX9dXGwFQC3ZbdTE0DV1Ple34Zzp/PB73oHG8NQTQKBgQD26OHMUZMDjvUj8S6x\nnzKzn5odqL2WsrmHhJuU7ZjJKtB6ek5KDnTi22crVbO1GW6RlhdlcA8FJdxfsffD\nCvVQd9LgvdpDXStEx18DntV9f9KNa2JwhsMMh7aHHrT1HsCqMx8y5ZnhgHge3L2c\ny8aqSn+TAeQLPma1+acbRUl45wKBgQDSUn2bAA6UB0+F0q17hbnjRxuzIttvs8fr\npY84yYTuBthxPme4/o+AnKfKb7XEU+vVkjldbOZxXZGZc91bQy+ggDw3++l1eVDt\nV8NGsUk/Pa2LnBKpW65u3KuDH69ivXDjAt8FSt66lUR6434jMn9XsvOF431l7sQC\nm7Ujhm/5twKBgQCzHhiH93mWMEQn8dQ06M+IPTU5ZOs8gqVS6WFQddjLvvKEl2tq\nD/i9hfrfFgoLS8rJdL++R7+ttVycU2fwp2d1G6fwf+nxyooUGCoWX0hzBaKCEy/T\nf//JfD5u4VjXJZsRHYr5ilTKoT8C7JHlSHLzoJ3R0KJVgcxTISwX/XiiawKBgGp/\nbKys1bTtEr5flIrEhwDnw8Xsc5LXRPc0qRYHLLFedAC7qcfJ1p44NNpTwIV+PR+y\n4CtHdlSXHZ/HRKHunlI2PMfYXjmmyWy1EONd6AoG0DauO+DX1La8NHi79ZIY/O1m\nScmjRK7T4I4dXYSzEDo3GgqEy71urn/nmkw3ycF3AoGBAKX6X/Sz89fWJdZ9YDIg\n20YtB6ikZywRGUyWHdoWm0QBsDPVR1zy+cFRnBDCdEgovGQ8Zc4sO2SxsLmI906+\n2DmJ9cKUlm1ZIF0pbZwonGJQ7r/s/BxCgxbO8tEMFtMrP6Bu6T8tnEXvpqA/63C3\nb/eUpwfJYBj4sgdvVk4DV+Bj\n-----END PRIVATE KEY-----\n",
  "client_email": "firebase-adminsdk-uogzg@rim-web-v2-1571640333794.iam.gserviceaccount.com",
  "client_id": "110883967725161543076",
  "auth_uri": "https://accounts.google.com/o/oauth2/auth",
  "token_uri": "https://oauth2.googleapis.com/token",
  "auth_provider_x509_cert_url": "https://www.googleapis.com/oauth2/v1/certs",
  "client_x509_cert_url": "https://www.googleapis.com/robot/v1/metadata/x509/firebase-adminsdk-uogzg%40rim-web-v2-1571640333794.iam.gserviceaccount.com"
}
